\BOOKMARK [1][-]{section.1}{Passos do livro Curso Intensivo de Python de Eric Matthes}{}% 1
\BOOKMARK [2][-]{subsection.1.1}{Parte inicial de cria\347\343o do projeto}{section.1}% 2
\BOOKMARK [2][-]{subsection.1.2}{Cria\347\343o de aplica\347\343o, modelo e superusu\341rio}{section.1}% 3
\BOOKMARK [1][-]{section.2}{Anota\347\365es do curso EAD de Gregory Pacheco}{}% 4
\BOOKMARK [2][-]{subsection.2.1}{Anota\347\365es gerais}{section.2}% 5
\BOOKMARK [2][-]{subsection.2.2}{As etapas, da cria\347\343o do projeto ao deploy do projeto}{section.2}% 6
\BOOKMARK [3][-]{subsubsection.2.2.1}{Resumo de instala\347\365es}{subsection.2.2}% 7
\BOOKMARK [2][-]{subsection.2.3}{ Configurando o pgAdmin3 }{section.2}% 8
\BOOKMARK [1][-]{section.3}{Anota\347\365es do curso de Git e Github da School of Net}{}% 9
